bin,pdf,fit,sig,long tail
34.22068165182674,0.0002659681592330812,0.00023973053184534753,0.00023658631418140507,0.06491139835910452
38.50290479758236,0.0007760675506793982,0.0007227792390184355,0.0007132995318115174,0.047300145168515266
43.23617709478669,0.0017204280105880818,0.0017131286712189385,0.001690659904361458,0.03464883246060912
48.471569159648695,0.003354132558117219,0.0033173818395892335,0.003273872277007496,0.02549361689164245
54.47325930801596,0.005166824577674055,0.0054890382606899955,0.005417046049583355,0.018635376736654368
61.26498368795876,0.0074087394591533795,0.007812703176181204,0.007710234628931096,0.013594142811187905
68.84295876240537,0.009382436041221473,0.00969759095776771,0.009570400914211755,0.009940089524432268
77.37526738639973,0.01091782135348573,0.010702744942650375,0.010562371668364805,0.00726394559213712
86.90096787600005,0.010969786507401682,0.010651042823273543,0.01051134765500875,0.0053188090592959725
97.6796985864833,0.009752381847000911,0.009675972327036557,0.009549065825506275,0.003885949878513084
109.85532066109194,0.008208562277420478,0.00810266185316604,0.007996390314336297,0.0028349377768049984
123.48070794407363,0.00622009157942081,0.0063262069098829875,0.006243234702051568,0.002071241996054077
138.73695235542118,0.004433386927265342,0.0046472854037926045,0.004586333314196386,0.0015150072741901435
156.19187299079655,0.0030657815613805536,0.0032119732618131926,0.003169846199447941,0.0011021847213569956
176.0509950993708,0.002013033698968271,0.00210385229360844,0.0020762589391326034,0.0007993092742040826
197.6732944967814,0.0012305778994431825,0.0013393741188437232,0.0013218073795106934,0.0005856792527258571
222.33370417834237,0.0007962271625977142,0.0008160896721617035,0.000805386139562747,0.0004271667166832386
250.0273406142325,0.0004926333523327797,0.00048153602348753084,0.00047522037374855293,0.0003116998490934054
281.2142447130859,0.0003350700615486526,0.0002758466420985535,0.00027222873878874476,0.00022734963582211155
316.8571589374022,0.00022569085699704594,0.00016503183099201782,0.00015066524038044062,0.00016503183099201782
355.8503583111107,0.00014361808448772718,0.00012085354058945992,8.290201893290203e-05,0.00012085354058945992
400.5873005576436,9.705280363616623e-05,8.794214722534302e-05,4.418613396171453e-05,8.794214722534302e-05
451.75600752266115,6.581939244017862e-05,6.368672800810635e-05,2.2915100074341527e-05,6.368672800810635e-05
509.21410901286566,4.24994619406447e-05,4.6181205841453e-05,1.1729914453026667e-05,4.6181205841453e-05
570.74349610792,3.0514550039991672e-05,3.399965826116369e-05,6.118588973042142e-06,3.399965826116369e-05
646.2852527472364,2.514604080016664e-05,2.4353276466857757e-05,2.9733757458107996e-06,2.4353276466857757e-05
722.0130590125145,2.0711235821452056e-05,1.8087474811112538e-05,1.547739275022263e-06,1.8087474811112538e-05
817.3587157511457,1.310387649115397e-05,1.2964960325818858e-05,7.382104958916345e-07,1.2964960325818858e-05
922.3128957465607,9.058406799062672e-06,9.374071389113219e-06,3.559378265364432e-07,9.374071389113219e-06
1033.3482856751289,6.243610977527411e-06,6.90875100358306e-06,1.7798384267116818e-07,6.90875100358306e-06
1159.4982489862714,5.622241118580763e-06,5.071222582701404e-06,8.767599384522953e-08,5.071222582701404e-06
1307.7371508392473,3.244779913630576e-06,3.6715334357861548e-06,4.1621179108514814e-08,3.6715334357861548e-06
1478.4406464645963,2.3648064209734367e-06,2.6412471991127198e-06,1.93712296815825e-08,2.6412471991127198e-06
1647.1812744052336,1.8454859306114826e-06,1.976087399981651e-06,9.838888439480377e-09,1.976087399981651e-06
1874.5876339692018,1.7769260062517757e-06,1.396477474393583e-06,4.3567178145114015e-09,1.396477474393583e-06
2097.700018190113,1.0123746080566327e-06,1.0325953478367083e-06,2.138794974459525e-09,1.0325953478367083e-06
2338.241076933919,8.997829148505764e-07,7.715566415806283e-07,1.0735702517699065e-09,7.715566415806283e-07
2628.12784891142,4.478393679097056e-07,5.637817270645102e-07,5.099674469784948e-10,5.637817270645102e-07
2953.7116066078643,3.980327130252284e-07,4.1204983853938977e-07,2.4185148101058953e-10,4.1204983853938977e-07
3348.235164343013,2.021516156916418e-07,2.942967154882369e-07,1.0835360502647906e-10,2.942967154882369e-07
3798.4695994400167,2.695038504935584e-07,2.09746812787967e-07,4.8205748265414026e-11,2.09746812787967e-07
4229.197164150044,1.9960904971237423e-07,1.5720494566983198e-07,2.4157712149370648e-11,1.5720494566983198e-07
4734.473963211543,1.7740944029159806e-07,1.1611531895560263e-07,1.1676218144582573e-11,1.1611531895560263e-07
5214.519660432816,4.730363109778434e-08,8.959740045344959e-08,6.262368562388321e-12,8.959740045344959e-08
6028.723652705935,7.007122780681132e-08,6.069365691428953e-08,2.453083291006667e-12,6.069365691428953e-08
6915.9684478854515,3.736693498715904e-08,4.198305040324198e-08,1.0092722084841765e-12,4.198305040324198e-08
7759.5304219466525,9.963346397926617e-08,3.08245692824119e-08,4.790153559197938e-13,3.08245692824119e-08
